<Qucs Schematic 0.0.19>
<Properties>
  <View=60,226,1810,3064,0.939019,0,1428>
  <Grid=10,10,1>
  <DataSet=circuit_diagram.dat>
  <DataDisplay=circuit_diagram.dpl>
  <OpenDisplay=1>
  <Script=circuit_diagram.m>
  <RunScript=0>
  <showFrame=0>
  <FrameText0=Title>
  <FrameText1=Drawn By:>
  <FrameText2=Date:>
  <FrameText3=Revision:>
</Properties>
<Symbol>
  <.PortSym 40 20 1 0>
  <.PortSym 40 60 2 0>
  <.PortSym 40 100 3 0>
  <.PortSym -70 130 4 0>
  <.PortSym -160 160 5 0>
  <.PortSym -160 200 6 0>
  <.PortSym -160 240 7 0>
  <.PortSym -160 280 8 0>
  <.PortSym -160 320 9 0>
  <.PortSym -160 360 10 0>
  <.PortSym -130 390 18 0>
  <.PortSym -130 430 16 0>
  <.PortSym -130 470 11 0>
  <.PortSym -130 510 12 0>
  <.PortSym -130 550 14 0>
  <.PortSym -130 590 15 0>
  <.PortSym -130 630 17 0>
  <.PortSym -130 670 13 0>
</Symbol>
<Components>
  <GND * 1 150 810 0 0 0 0>
  <GND * 1 610 560 0 0 0 0>
  <R R3 1 450 650 -26 15 0 0 "100 k" 1 "26.85" 0 "0.0" 0 "0.0" 0 "26.85" 0 "US" 0>
  <R R4 1 1260 350 -26 -53 0 2 "50 Ohm" 1 "26.85" 0 "0.0" 0 "0.0" 0 "26.85" 0 "US" 0>
  <R PULL_UP_R0 1 910 760 15 -26 0 1 "4.7k" 1 "26.85" 0 "0.0" 0 "0.0" 0 "26.85" 0 "US" 0>
  <_BJT T_2N2222_1 5 680 820 12 -32 0 0 "npn" 0 "1e-14" 0 "1" 0 "1" 0 "0.3" 0 "0" 0 "100" 0 "0" 0 "0" 0 "1.5" 0 "0" 0 "2" 0 "200" 0 "3" 0 "0" 0 "0" 0 "3" 0 "1" 0 "10" 0 "25e-12" 0 "0.75" 0 "0.33" 0 "8e-12" 0 "0.75" 0 "0.33" 0 "1.0" 0 "0" 0 "0.75" 0 "0" 0 "0.5" 0 "400e-12" 0 "3" 0 "0.0" 0 "2" 0 "100e-9" 0 "26.85" 0 "0.0" 0 "1.0" 0 "1.0" 0 "0.0" 0 "1.0" 0 "1.0" 0 "0.0" 0 "0.0" 0 "3.0" 0 "1.11" 0 "26.85" 0 "1.0" 0>
  <GND * 1 370 900 0 0 0 0>
  <Diode D_1N4003_6 5 1010 350 -104 -26 1 1 "76.9p" 0 "1.45" 0 "39.8p" 0 "0.333" 0 "0.7" 0 "0.5" 0 "0" 0 "0" 0 "2" 0 "42m" 0 "4.32u" 0 "0" 0 "0" 0 "1" 0 "1" 0 "200" 0 "5u" 0 "26.85" 0 "3.0" 0 "1.11" 0 "0.0" 0 "0.0" 0 "0.0" 0 "0.0" 0 "0.0" 0 "0.0" 0 "26.85" 0 "1.0" 0 "normal" 0>
  <Diode D_1N4003_7 5 1010 410 -104 -26 1 1 "76.9p" 0 "1.45" 0 "39.8p" 0 "0.333" 0 "0.7" 0 "0.5" 0 "0" 0 "0" 0 "2" 0 "42m" 0 "4.32u" 0 "0" 0 "0" 0 "1" 0 "1" 0 "200" 0 "5u" 0 "26.85" 0 "3.0" 0 "1.11" 0 "0.0" 0 "0.0" 0 "0.0" 0 "0.0" 0 "0.0" 0 "0.0" 0 "26.85" 0 "1.0" 0 "normal" 0>
  <Diode D_1N4003_8 5 1010 470 -104 -26 1 1 "76.9p" 0 "1.45" 0 "39.8p" 0 "0.333" 0 "0.7" 0 "0.5" 0 "0" 0 "0" 0 "2" 0 "42m" 0 "4.32u" 0 "0" 0 "0" 0 "1" 0 "1" 0 "200" 0 "5u" 0 "26.85" 0 "3.0" 0 "1.11" 0 "0.0" 0 "0.0" 0 "0.0" 0 "0.0" 0 "0.0" 0 "0.0" 0 "26.85" 0 "1.0" 0 "normal" 0>
  <Lib D2 5 1100 410 13 14 0 1 "LEDs" 0 "infrared" 0>
  <Lib D1 5 590 800 -18 14 1 1 "LEDs" 0 "infrared" 0>
  <Lib DIM_NMOS 1 840 390 -96 -26 1 2 "NMOSFETs" 0 "IRF520N" 0>
  <_MOSFET NIXIE_DIM_PMOS 1 1080 2100 5 21 0 2 "pfet" 0 "-1.6" 0 "25m" 0 "1.98" 0 "0.75" 0 "108u" 0 "0.84" 0 "0.84" 0 "0" 0 "65f" 0 "1" 0 "0.0001" 0 "0.0001" 0 "0" 0 "1e-07" 0 "144n" 0 "120n" 0 "341n" 0 "64.2p" 0 "77.1p" 0 "0.8" 0 "0.46" 0 "0.5" 0 "0" 0 "0.33" 0 "0" 0 "0" 0 "0" 0 "1" 0 "600" 0 "0" 0 "1" 0 "1" 0 "0" 0 "0" 0 "0" 0 "0" 0 "0" 0 "0" 0 "0" 0 "1" 0 "1" 0 "26.85" 0 "26.85" 0>
  <_BJT T_2N2222_2 5 1350 2200 12 -32 0 0 "npn" 0 "1e-14" 0 "1" 0 "1" 0 "0.3" 0 "0" 0 "100" 0 "0" 0 "0" 0 "1.5" 0 "0" 0 "2" 0 "200" 0 "3" 0 "0" 0 "0" 0 "3" 0 "1" 0 "10" 0 "25e-12" 0 "0.75" 0 "0.33" 0 "8e-12" 0 "0.75" 0 "0.33" 0 "1.0" 0 "0" 0 "0.75" 0 "0" 0 "0.5" 0 "400e-12" 0 "3" 0 "0.0" 0 "2" 0 "100e-9" 0 "26.85" 0 "0.0" 0 "1.0" 0 "1.0" 0 "0.0" 0 "1.0" 0 "1.0" 0 "0.0" 0 "0.0" 0 "3.0" 0 "1.11" 0 "26.85" 0 "1.0" 0>
  <Lib D3 5 1260 2180 -18 14 1 1 "LEDs" 0 "infrared" 0>
  <L L1 1 870 1170 -26 10 0 0 "20 mH" 1 "" 0>
  <Lib TRAN_12VRMSOUT 1 180 1230 -30 -81 0 0 "Transformers" 0 "TransformerPS1S2" 0 "0.5" 0 "0.125" 0 "0.125" 0 "0.99" 0 "0.99" 0 "0.99" 0 "2" 0 "1" 0 "1" 0>
  <GND * 1 100 1370 0 0 0 0>
  <Lib HV_NMOS 1 1290 1280 -124 -22 1 3 "NMOSFETs" 0 "IRF520N" 0>
  <R R7 1 1080 2270 15 -26 0 1 "20k" 1 "26.85" 0 "0.0" 0 "0.0" 0 "26.85" 0 "US" 0>
  <Lib NIXIE 1 1080 2330 6 -26 0 1 "LEDs" 0 "red" 0>
  <C C1 1 970 2100 -89 -16 0 1 "15 uF" 1 "" 0 "neutral" 0>
  <C C2 1 730 1260 17 -26 0 1 "4700 uF" 1 "" 0 "neutral" 0>
  <C C3 1 1000 1260 -117 -24 0 1 "4700 uF" 1 "" 0 "neutral" 0>
  <Port GPIO_DIM_OUT 1 1380 350 4 -31 0 2 "2" 0 "analog" 0>
  <Port GPIO_GND 1 1370 510 4 -31 0 2 "1" 0 "analog" 0>
  <Port GPIO_V_SENSE_IN 1 1020 720 4 -31 0 2 "3" 0 "analog" 0>
  <Port RPI_3.3VOUT 1 910 810 12 4 0 1 "4" 0 "analog" 0>
  <Port GPIO_HV_ENABLE 1 1200 1040 -153 -23 0 3 "16" 0 "analog" 0>
  <Port 5V_DCDC_CONVERTER_POS_IN 1 1330 1110 37 -19 0 2 "11" 0 "analog" 0>
  <Port 170V_DCDC_CONVERTER_POS_IN 1 1330 1220 30 -17 0 2 "12" 0 "analog" 0>
  <Port 170V_DCDC_CONVERTER_VNEG 1 1330 1280 34 -18 0 2 "14" 0 "analog" 0>
  <Port 5V_DCDC_CONVERTER_VNEG 1 1330 1350 36 -24 0 2 "15" 0 "analog" 0>
  <Port 5V_DCDC_CONVERTER_POS_OUT 1 540 1750 -23 12 0 0 "17" 0 "analog" 0>
  <Port RASPBERRY_PI_VIN 1 1070 1710 4 -31 0 2 "5" 0 "analog" 0>
  <Port ARDUINO_VIN 1 1090 1800 4 -31 0 2 "6" 0 "analog" 0>
  <Port RASPBERRY_PI_GND 1 1340 1430 -23 12 0 0 "13" 0 "analog" 0>
  <Port ARDUINO_GND 1 1340 1550 -23 12 0 0 "7" 0 "analog" 0>
  <R RLAMP 1 270 280 -26 -34 0 2 "100 Ohm" 0 "26.85" 0 "0.0" 0 "0.0" 0 "26.85" 0 "US" 0>
  <S4Q_W MAIN_SWITCH 1 150 720 19 -36 0 1 "" 0 "" 0 "" 0 "" 0 "" 0>
  <Vac VMAINS 1 150 780 18 -26 0 1 "170 V" 1 "60 Hz" 0 "0" 0 "0" 0>
  <Port K155ID1_OUT 1 1180 2600 34 -2 0 1 "10" 0 "analog" 0>
  <R R_DAMPER 1 630 1170 -26 15 0 0 "10 Ohm" 1 "26.85" 0 "0.0" 0 "0.0" 0 "26.85" 0 "US" 0>
  <Diode D_1N4003_1 5 530 280 -26 13 1 2 "76.9p" 0 "1.45" 0 "39.8p" 0 "0.333" 0 "0.7" 0 "0.5" 0 "0" 0 "0" 0 "2" 0 "42m" 0 "4.32u" 0 "0" 0 "0" 0 "1" 0 "1" 0 "200" 0 "5u" 0 "26.85" 0 "3.0" 0 "1.11" 0 "0.0" 0 "0.0" 0 "0.0" 0 "0.0" 0 "0.0" 0 "0.0" 0 "26.85" 0 "1.0" 0 "normal" 0>
  <Diode D_1N4003_3 5 610 350 13 -26 1 3 "76.9p" 0 "1.45" 0 "39.8p" 0 "0.333" 0 "0.7" 0 "0.5" 0 "0" 0 "0" 0 "2" 0 "42m" 0 "4.32u" 0 "0" 0 "0" 0 "1" 0 "1" 0 "200" 0 "5u" 0 "26.85" 0 "3.0" 0 "1.11" 0 "0.0" 0 "0.0" 0 "0.0" 0 "0.0" 0 "0.0" 0 "0.0" 0 "26.85" 0 "1.0" 0 "normal" 0>
  <Diode D_1N4003_2 5 540 400 -26 13 1 2 "76.9p" 0 "1.45" 0 "39.8p" 0 "0.333" 0 "0.7" 0 "0.5" 0 "0" 0 "0" 0 "2" 0 "42m" 0 "4.32u" 0 "0" 0 "0" 0 "1" 0 "1" 0 "200" 0 "5u" 0 "26.85" 0 "3.0" 0 "1.11" 0 "0.0" 0 "0.0" 0 "0.0" 0 "0.0" 0 "0.0" 0 "0.0" 0 "26.85" 0 "1.0" 0 "normal" 0>
  <Diode D_1N4003_4 5 440 340 13 -26 1 3 "76.9p" 0 "1.45" 0 "39.8p" 0 "0.333" 0 "0.7" 0 "0.5" 0 "0" 0 "0" 0 "2" 0 "42m" 0 "4.32u" 0 "0" 0 "0" 0 "1" 0 "1" 0 "200" 0 "5u" 0 "26.85" 0 "3.0" 0 "1.11" 0 "0.0" 0 "0.0" 0 "0.0" 0 "0.0" 0 "0.0" 0 "0.0" 0 "26.85" 0 "1.0" 0 "normal" 0>
  <Diode D_1N4003_11 5 520 1220 -104 -26 0 3 "76.9p" 0 "1.45" 0 "39.8p" 0 "0.333" 0 "0.7" 0 "0.5" 0 "0" 0 "0" 0 "2" 0 "42m" 0 "4.32u" 0 "0" 0 "0" 0 "1" 0 "1" 0 "200" 0 "5u" 0 "26.85" 0 "3.0" 0 "1.11" 0 "0.0" 0 "0.0" 0 "0.0" 0 "0.0" 0 "0.0" 0 "0.0" 0 "26.85" 0 "1.0" 0 "normal" 0>
  <Diode D_1N4003_10 5 430 1170 -26 -13 0 2 "76.9p" 0 "1.45" 0 "39.8p" 0 "0.333" 0 "0.7" 0 "0.5" 0 "0" 0 "0" 0 "2" 0 "42m" 0 "4.32u" 0 "0" 0 "0" 0 "1" 0 "1" 0 "200" 0 "5u" 0 "26.85" 0 "3.0" 0 "1.11" 0 "0.0" 0 "0.0" 0 "0.0" 0 "0.0" 0 "0.0" 0 "0.0" 0 "26.85" 0 "1.0" 0 "normal" 0>
  <Diode D_1N4003_12 5 440 1280 -26 -13 0 2 "76.9p" 0 "1.45" 0 "39.8p" 0 "0.333" 0 "0.7" 0 "0.5" 0 "0" 0 "0" 0 "2" 0 "42m" 0 "4.32u" 0 "0" 0 "0" 0 "1" 0 "1" 0 "200" 0 "5u" 0 "26.85" 0 "3.0" 0 "1.11" 0 "0.0" 0 "0.0" 0 "0.0" 0 "0.0" 0 "0.0" 0 "0.0" 0 "26.85" 0 "1.0" 0 "normal" 0>
  <Diode D_1N4003_9 5 350 1230 -104 -26 0 3 "76.9p" 0 "1.45" 0 "39.8p" 0 "0.333" 0 "0.7" 0 "0.5" 0 "0" 0 "0" 0 "2" 0 "42m" 0 "4.32u" 0 "0" 0 "0" 0 "1" 0 "1" 0 "200" 0 "5u" 0 "26.85" 0 "3.0" 0 "1.11" 0 "0.0" 0 "0.0" 0 "0.0" 0 "0.0" 0 "0.0" 0 "0.0" 0 "26.85" 0 "1.0" 0 "normal" 0>
  <Diode D_1N4003_5 5 340 650 -26 13 1 2 "76.9p" 0 "1.45" 0 "39.8p" 0 "0.333" 0 "0.7" 0 "0.5" 0 "0" 0 "0" 0 "2" 0 "42m" 0 "4.32u" 0 "0" 0 "0" 0 "1" 0 "1" 0 "200" 0 "5u" 0 "26.85" 0 "3.0" 0 "1.11" 0 "0.0" 0 "0.0" 0 "0.0" 0 "0.0" 0 "0.0" 0 "0.0" 0 "26.85" 0 "1.0" 0 "normal" 0>
  <Port GPIO_NIXIE_DIM 1 1590 2060 4 -31 0 2 "8" 0 "analog" 0>
  <Port 170v_DCDC_CONVERTER_POS_OUT 1 550 2070 -23 12 0 0 "18" 0 "analog" 0>
  <Port K155ID1_IN 1 1080 2360 -51 37 0 1 "9" 0 "analog" 0>
  <R R8 1 1390 1960 -26 -53 0 2 "50 Ohm" 1 "26.85" 0 "0.0" 0 "0.0" 0 "26.85" 0 "US" 0>
  <R PULL_UP_R1 1 1060 1980 -19 -55 0 0 "20k" 1 "26.85" 0 "0.0" 0 "0.0" 0 "26.85" 0 "US" 0>
</Components>
<Wires>
  <440 280 440 310 "" 0 0 0 "">
  <440 280 500 280 "" 0 0 0 "">
  <440 400 510 400 "" 0 0 0 "">
  <440 370 440 400 "" 0 0 0 "">
  <610 380 610 400 "" 0 0 0 "">
  <570 400 610 400 "" 0 0 0 "">
  <610 280 610 320 "" 0 0 0 "">
  <560 280 610 280 "" 0 0 0 "">
  <150 280 150 650 "" 0 0 0 "">
  <150 280 240 280 "" 0 0 0 "">
  <610 400 610 560 "" 0 0 0 "">
  <610 280 840 280 "" 0 0 0 "">
  <840 280 840 360 "" 0 0 0 "">
  <280 400 280 500 "" 0 0 0 "">
  <280 400 440 400 "" 0 0 0 "">
  <840 420 840 500 "" 0 0 0 "">
  <150 650 150 680 "" 0 0 0 "">
  <150 650 310 650 "" 0 0 0 "">
  <370 650 420 650 "" 0 0 0 "">
  <480 650 590 650 "" 0 0 0 "">
  <590 650 590 770 "" 0 0 0 "">
  <1010 290 1010 320 "" 0 0 0 "">
  <880 290 1010 290 "" 0 0 0 "">
  <880 290 880 390 "" 0 0 0 "">
  <870 390 880 390 "" 0 0 0 "">
  <1010 500 1010 580 "" 0 0 0 "">
  <850 580 1010 580 "" 0 0 0 "">
  <850 420 850 580 "" 0 0 0 "">
  <840 420 850 420 "" 0 0 0 "">
  <1100 440 1100 510 "" 0 0 0 "">
  <1100 510 1370 510 "" 0 0 0 "">
  <1100 350 1100 380 "" 0 0 0 "">
  <1100 350 1230 350 "" 0 0 0 "">
  <1290 350 1380 350 "" 0 0 0 "">
  <280 500 840 500 "" 0 0 0 "">
  <680 720 680 790 "" 0 0 0 "">
  <680 720 910 720 "" 0 0 0 "">
  <680 850 680 900 "" 0 0 0 "">
  <680 900 1370 900 "" 0 0 0 "">
  <1370 510 1370 550 "" 0 0 0 "">
  <910 720 1020 720 "" 0 0 0 "">
  <910 720 910 730 "" 0 0 0 "">
  <910 790 910 810 "" 0 0 0 "">
  <590 830 590 900 "" 0 0 0 "">
  <370 900 590 900 "" 0 0 0 "">
  <300 280 440 280 "" 0 0 0 "">
  <1370 550 1370 900 "" 0 0 0 "">
  <1370 550 1750 550 "" 0 0 0 "">
  <1750 550 1750 1370 "" 0 0 0 "">
  <1070 1710 1070 1750 "" 0 0 0 "">
  <540 1750 1070 1750 "" 0 0 0 "">
  <1070 1750 1070 1800 "" 0 0 0 "">
  <1070 1800 1090 1800 "" 0 0 0 "">
  <550 2070 970 2070 "" 0 0 0 "">
  <1560 1960 1560 2060 "" 0 0 0 "">
  <1560 2060 1590 2060 "" 0 0 0 "">
  <1110 2060 1110 2100 "" 0 0 0 "">
  <1000 2070 1080 2070 "" 0 0 0 "">
  <1110 2060 1540 2060 "" 0 0 0 "">
  <1180 2460 1200 2460 "" 0 0 0 "">
  <350 1170 350 1180 "" 0 0 0 "">
  <350 1170 400 1170 "" 0 0 0 "">
  <350 1260 350 1280 "" 0 0 0 "">
  <350 1280 410 1280 "" 0 0 0 "">
  <520 1250 520 1280 "" 0 0 0 "">
  <470 1280 520 1280 "" 0 0 0 "">
  <520 1170 520 1190 "" 0 0 0 "">
  <460 1170 520 1170 "" 0 0 0 "">
  <730 1370 1000 1370 "" 0 0 0 "">
  <900 1170 1000 1170 "" 0 0 0 "">
  <350 1280 350 1370 "" 0 0 0 "">
  <350 1370 730 1370 "" 0 0 0 "">
  <110 680 150 680 "" 0 0 0 "">
  <110 680 110 1180 "" 0 0 0 "">
  <110 1180 140 1180 "" 0 0 0 "">
  <350 1180 350 1200 "" 0 0 0 "">
  <260 1180 350 1180 "" 0 0 0 "">
  <100 1370 130 1370 "" 0 0 0 "">
  <1260 1110 1260 1170 "" 0 0 0 "">
  <1260 1110 1330 1110 "" 0 0 0 "">
  <1260 1170 1260 1220 "" 0 0 0 "">
  <1260 1220 1330 1220 "" 0 0 0 "">
  <1750 1370 1750 1430 "" 0 0 0 "">
  <1000 1370 1230 1370 "" 0 0 0 "">
  <1230 1370 1750 1370 "" 0 0 0 "">
  <1230 1320 1230 1370 "" 0 0 0 "">
  <1230 1320 1260 1320 "" 0 0 0 "">
  <1260 1280 1260 1320 "" 0 0 0 "">
  <1260 1320 1260 1350 "" 0 0 0 "">
  <1260 1350 1330 1350 "" 0 0 0 "">
  <1320 1280 1330 1280 "" 0 0 0 "">
  <1200 1040 1200 1250 "" 0 0 0 "">
  <1200 1250 1290 1250 "" 0 0 0 "">
  <1180 2460 1180 2600 "" 0 0 0 "">
  <970 2130 970 2460 "" 0 0 0 "">
  <970 2460 1180 2460 "" 0 0 0 "">
  <1750 2230 1750 2460 "" 0 0 0 "">
  <1350 2230 1750 2230 "" 0 0 0 "">
  <1080 2130 1080 2240 "" 0 0 0 "">
  <970 2070 1000 2070 "" 0 0 0 "">
  <520 1280 520 1400 "" 0 0 0 "">
  <260 1400 520 1400 "" 0 0 0 "">
  <260 1370 260 1400 "" 0 0 0 "">
  <1000 1170 1260 1170 "" 0 0 0 "">
  <730 1170 840 1170 "" 0 0 0 "">
  <730 1170 730 1230 "" 0 0 0 "">
  <730 1290 730 1370 "" 0 0 0 "">
  <1000 1170 1000 1230 "" 0 0 0 "">
  <1000 1290 1000 1370 "" 0 0 0 "">
  <150 680 150 690 "" 0 0 0 "">
  <1750 1430 1750 1550 "" 0 0 0 "">
  <1340 1430 1750 1430 "" 0 0 0 "">
  <1750 1550 1750 2230 "" 0 0 0 "">
  <1340 1550 1750 1550 "" 0 0 0 "">
  <660 1170 730 1170 "" 0 0 0 "">
  <520 1170 600 1170 "" 0 0 0 "">
  <1420 1960 1560 1960 "" 0 0 0 "">
  <1350 2170 1540 2170 "" 0 0 0 "">
  <1540 2060 1540 2170 "" 0 0 0 "">
  <1260 2210 1260 2250 "" 0 0 0 "">
  <1200 2250 1260 2250 "" 0 0 0 "">
  <1200 2460 1750 2460 "" 0 0 0 "">
  <1200 2250 1200 2460 "" 0 0 0 "">
  <1260 2100 1260 2150 "" 0 0 0 "">
  <1190 2100 1260 2100 "" 0 0 0 "">
  <1190 1960 1190 2100 "" 0 0 0 "">
  <1190 1960 1360 1960 "" 0 0 0 "">
  <1000 1980 1030 1980 "" 0 0 0 "">
  <1000 1980 1000 2070 "" 0 0 0 "">
  <1090 1980 1110 1980 "" 0 0 0 "">
  <1110 1980 1110 2060 "" 0 0 0 "">
</Wires>
<Diagrams>
</Diagrams>
<Paintings>
  <Rectangle 560 700 240 270 #000000 5 1 #c0c0c0 1 0>
  <Rectangle 900 280 290 280 #000000 5 1 #c0c0c0 1 0>
  <Text 960 520 24 #000000 0 "VOM1271">
  <Text 630 920 24 #000000 0 "PC817">
  <Rectangle 1230 2080 240 270 #000000 5 1 #c0c0c0 1 0>
  <Text 1300 2300 24 #000000 0 "PC817">
  <Text 510 1410 24 #000000 0 "AC-DC Converter (12VDC OUTPUT)">
  <Rectangle 140 1110 940 350 #000000 5 1 #c0c0c0 1 0>
</Paintings>
